XGBoost and VCSN data for isoscapes
…
both.models.rmse.by.site |>
  arrange(rmse_diff) |>
  select(-lat, -lon, -rmse_diff_neg)

# A tibble: 96 × 7
   Site                rmse_all_data  rmse rmse_diff mad_all_data   mad mad_diff
   <chr>                       <dbl> <dbl>     <dbl>        <dbl> <dbl>    <dbl>
 1 Ohau top weather p…          4.82  3.08     -1.74         0.89  0.99   0.1   
 2 Cardrona Base area           2.23  0.61     -1.62         1.1   0.46  -0.64  
 3 FREW 35                      1.96  0.86     -1.1          0.81  0.36  -0.45  
 4 NZWaM 1                      1.56  0.95     -0.61         0.94  0.55  -0.39  
 5 FREW 50                      1.2   0.63     -0.57         0.55  0.2   -0.35  
 6 FREW 54                      1.44  0.93     -0.51         0.76  0.23  -0.53  
 7 FREW 6                       1.32  0.87     -0.45         0.5   0.23  -0.27  
 8 FREW 52                      1.3   0.89     -0.41         0.55  0.51  -0.0400
 9 FREW 47                      1.62  1.22     -0.4          0.8   0.5   -0.3   
10 NZWaM 3                      1.02  0.63     -0.39         0.88  0.48  -0.4   
# ℹ 86 more rows
…
